{
    "antifeatures": {
        "Ads": "Aplikazio honek iragarkiak ditu",
        "DisabledAlgorithm": "Aplikazio honek segurtasun sinadura ahula du",
        "KnownVuln": "Aplikazio honek segurtasun arazo ezagun bat du",
        "NoSourceSince": "Iturburu kodea ez dago jada eskuragarri, ezin izango dira eguneraketak egin.",
        "NonFreeAdd": "Aplikazio honen libreak ez diren gehigarriak bultzatzen ditu",
        "NonFreeAssets": "Aplikazio honek libreak ez diren atalak ditu",
        "NonFreeDep": "Aplikazio honek libreak ez diren beste aplikazio batzuk behar ditu",
        "NonFreeNet": "Aplikazio honek libreak ez diren sare zerbitzuak bultzatzen ditu",
        "Tracking": "Aplikazio honek zure eginkizunen jarraipena egiten du eta berri ematen du",
        "UpstreamNonFree": "Jatorrizko iturburu kodea ez da guztiz librea"
    },
    "index": {
        "download_fdroid": "Deskargatu F-Droid",
        "gpg_signature": "PGP sinadura",
        "introduction": "F-Droid instalatu daitekeen Android plataformarako aplikazio libreen edo FOSS (Free and Open Source Software) katalogo bat da. Bezero honek zure gailuan aplikazio hauek erraz bilatu, instalatu eta eguneratzea ahalbidetzen dizu.",
        "screenshot": "Android-erako F-Droid-en pantaila-argazkiak",
        "title": "Zer da F-Droid?"
    },
    "navigation": {
        "about": "Honi buruz",
        "browse": "Arakatu",
        "contribute": "Hartu parte",
        "documentation": "Dokumentuak",
        "forum": "Foroa",
        "issues": "Arazoak",
        "news": "Berriak"
    },
    "package": {
        "anti_features": "Ezaugarri zalantzagarriak",
        "anti_features_warning": "Aplikazio honek agian gustuko ez dituzun ezaugarriak ditu.",
        "author": "Egilea",
        "build_metadata": "Konpilazioaren metadatuak",
        "changelog": "Aldaketa-egunkaria",
        "donate": "Dohaintza",
        "download": "Deskargatu [file_extension]",
        "flattr": "Flattr",
        "gpg_signature": "PGP sinadura",
        "issue_tracker": "Akats kudeatzailea",
        "liberapay": "Liberapay",
        "license": "Lizentzia",
        "minimum_android_version": "Bertsio honek Android [android_version] edo berriagoa behar du.",
        "new_in_version": "[latest_version] bertsioan berria",
        "packages": "Paketeak",
        "permissions": "Baimenak",
        "signed_by_developer": "Jatorrizko garatzaileak sortu eta sinatutakoa da.",
        "signed_by_fdroid": "F-Droid proiektuak sortu eta sinatutakoa da, eta <a href=\"[source_code_url]\">iturburuaren tarball honekin</a> bat datorrela bermatzen dugu.",
        "source_code": "Iturburu-kodea",
        "suggest_downloading_via_fdroid": "Behean APK fitxategiak deskargatzeko aukera ematen bazaizu ere, jakin hauek zuzenean instalatuz gero ez duzula eguneraketen berri jasoko eta deskargatzeko modu ez seguruagoa dela. F-Droid bezeroa instalatu eta berau erabiltzea aholkatzen dizugu.",
        "technical_info": "Informazio teknikoa",
        "translation": "Itzulpena",
        "version_info": "<b>[package_version] bertsioa</b> ([package_version_code]) - Gehitze data: [package_added_date]",
        "website": "Webgunea"
    },
    "permissions": {
        "permdesc_acceptHandovers": "Beste aplikazio batean hasitako dei bat jarraitzea baimentzen dio aplikazioari.",
        "permdesc_accessCoarseLocation": "Aplikazioak zure kokapenaren berri izan dezake sareen iturburuak (adibidez, telefonia mugikorreko dorreak eta Wi-Fi sareak) erabilita. Kokapen-zerbitzu horiek aktibatuta eta erabilgarri izan behar dituzu telefonoan, aplikazioak erabil ditzan.",
        "permdesc_accessDrmCertificates": "DRM ziurtagiriak hornitzea eta erabiltzea baimentzen die aplikazioei. Aplikazio normalek ez lukete beharko.",
        "permdesc_accessFineLocation": "Aplikazioak zure kokapenaren berri izan dezake GPS sistema edo sareen iturburuak (adibidez, telefonia mugikorreko dorreak eta Wi-Fi sareak) erabilita. Kokapen-zerbitzu horiek aktibatuta eta erabilgarri izan behar dituzu telefonoan, aplikazioak erabil ditzan. Baliteke bateria gehiago erabiltzea.",
        "permdesc_accessImsCallService": "Zuk ezer egin beharrik gabe deiak egiteko IMS zerbitzua erabiltzea baimentzen die aplikazioei.",
        "permdesc_accessLocationExtraCommands": "Kokapen-hornitzailearen agindu gehigarriak atzitzea baimentzen die aplikazioei. Horrela, agian aplikazioek GPSaren edo bestelako kokapenaren iturburuen funtzionamenduan eragina izan dezakete.",
        "permdesc_accessNetworkConditions": "Sareko baldintzak hautemateko aukera ematen die aplikazioei. Aplikazio normalek ez dute baimen hau behar.",
        "permdesc_accessNetworkState": "Sareko konexioei buruzko informazioa ikusteko baimena ematen die aplikazioei; adibidez, zer sare dauden eta zeintzuk dauden konektatuta.",
        "permdesc_accessNotifications": "Jakinarazpenak berreskuratu, aztertu eta garbitzeko aukera ematen die aplikazioei, beste aplikazioek argitaratutako jakinarazpenak barne.",
        "permdesc_accessWifiState": "Wi-Fi sareei buruzko informazioa ikusteko baimena ematen die aplikazioei, adibidez, Wi-Fi konexioa aktibatuta dagoen eta konektatutako Wi-Fi gailuen izenak zein diren.",
        "permdesc_accessWimaxState": "WiMAX gaituta dagoen zehazteko eta konektatutako WiMAX sareei buruzko informazioa ikusteko baimena ematen die aplikazioei.",
        "permdesc_access_notification_policy": "\\\"Ez molestatu\\\" konfigurazioa irakurtzea eta bertan idaztea baimentzen die aplikazioei.",
        "permdesc_addVoicemail": "Erantzungailuko sarrera-ontzian mezuak gehitzea baimentzen die aplikazioei.",
        "permdesc_answerPhoneCalls": "Sarrerako deiak hartzea baimentzen die aplikazioei.",
        "permdesc_bindCarrierMessagingService": "Operadore baten mezularitza-zerbitzuaren goi-mailako interfazeari lotzea baimentzen die erabiltzaileei. Aplikazio normalek ez lukete inoiz beharko.",
        "permdesc_bindCarrierServices": "Operadorearen zerbitzuei lotzea baimentzen die titularrei. Aplikazio normalek ez dute baimen hau behar.",
        "permdesc_bindConditionProviderService": "Baldintza-hornitzaileen zerbitzuen goi-mailako interfazeari lotzea baimentzen die titularrei. Aplikazio normalek ez lukete beharko.",
        "permdesc_bindDreamService": "Dream zerbitzu baten goi-mailako interfazeari lotzea baimentzen die titularrei. Aplikazio normalek ez lukete beharko.",
        "permdesc_bindNotificationListenerService": "Jakinarazpen-hautemaile baten goi-mailako interfazera lotzeko aukera ematen dio titularrari. Aplikazio normalek ez dute baimen hau behar.",
        "permdesc_bind_connection_service": "Deiak egiteko eta jasotzeko telefonia-zerbitzuekin elkarreragitea baimentzen die aplikazioei.",
        "permdesc_bind_incall_service": "Erabiltzaileak deiaren pantaila noiz eta nola ikusten duen kontrolatzea baimentzen die aplikazioei.",
        "permdesc_bluetooth": "Telefonoaren Bluetootharen konfigurazioa ikusteko eta bikotetutako gailuekin konexioak egiteko eta onartzeko baimena ematen die aplikazioei.",
        "permdesc_bluetoothAdmin": "Tokiko Bluetooth telefonoa konfiguratzea eta urruneko gailuak detektatzea eta haiekin parekatzea baimentzen die aplikazioei.",
        "permdesc_bodySensors": "Zure egoera fisikoa kontrolatzen duten sentsoreetako datuak (adibidez, bihotz-maiztasuna) atzitzea baimentzen die aplikazioei.",
        "permdesc_broadcastSticky": "Igorpen iraunkorrak emateko baimena ematen die; horiek igorpena amaitu ondoren mantentzen dira. Gehiegi erabiliz gero, telefonoa motel edo ezegonkor ibiliko da, memoria gehiago erabiliko delako.",
        "permdesc_callPhone": "Telefono-zenbakietara zuk esku hartu gabe deitzeko baimena ematen die aplikazioei. Horrela, ustekabeko gastuak edo deiak eragin daitezke. Aplikazio gaiztoek erabil dezakete zuk berretsi gabeko deiak eginda gastuak eragiteko.",
        "permdesc_camera": "Aplikazioak edonoiz erabil dezake kamera argazkiak ateratzeko eta bideoak grabatzeko.",
        "permdesc_changeNetworkState": "Sarearen konexioaren egoera aldatzea baimentzen die aplikazioei.",
        "permdesc_changeTetherState": "Partekatutako Interneterako konexioaren egoera aldatzea baimentzen die aplikazioei.",
        "permdesc_changeWifiMulticastState": "Wi-Fi sarearen bidez gailu guztiei bidalitako paketeak jasotzeko baimena ematen die aplikazioei multidifusio-helbideak erabilita, ez telefonoa soilik. Multidifusiokoa ez den moduak baino bateria gehiago erabiltzen du.",
        "permdesc_changeWifiState": "Wi-Fi sarbide-puntuetara konektatzeko edo haietatik deskonektatzeko baimena ematen die aplikazioei, baita Wi-Fi sareen gailu-konfigurazioari aldaketak egitekoa ere.",
        "permdesc_changeWimaxState": "Telefonoa WiMAX sareetara konektatzeko edo haietatik deskonektatzeko baimena ematen die aplikazioei.",
        "permdesc_connection_manager": "Telekomunikabideekiko konexioak kudeatzea baimentzen die aplikazioei.",
        "permdesc_control_incall_experience": "Deiak abian direnean erabiltzeko aukera eskaintzea baimentzen die aplikazioei.",
        "permdesc_createNetworkSockets": "Sare-socketak sortzeko eta sare-protokolo pertsonalizatuak erabiltzeko baimena ematen die aplikazioei. Arakatzaileak eta beste aplikazio batzuek Internetera konektatzeko moduak eskaintzen dituzte, beraz, baimen hori ez da beharrezkoa datuak Internetera bidaltzeko.",
        "permdesc_disableKeyguard": "Teklen blokeoa eta erlazionatutako pasahitz-segurtasuna desgaitzeko baimena ematen die aplikazioei. Adibidez, telefonoak teklen blokeoa desgaitzen du telefono-deiak jasotzen dituenean, eta berriro gaitzen du deiak amaitzean.",
        "permdesc_enableCarMode": "Auto modua gaitzea baimentzen die aplikazioei.",
        "permdesc_expandStatusBar": "Egoera-barra zabaltzea edo tolestea baimentzen die aplikazioei.",
        "permdesc_foregroundService": "Aurreko planoko zerbitzuak erabiltzea baimentzen dio aplikazioari.",
        "permdesc_getAccounts": "Telefonoak ezagutzen dituen kontuen zerrenda lortzeko baimena ematen die aplikazioei. Instalatuta dituzun aplikazioek sortutako kontuak har daitezke barnean.",
        "permdesc_getPackageSize": "Bere kodea, datuak eta cache-tamainak eskuratzea baimentzen die aplikazioei.",
        "permdesc_getTasks": "Unean edo duela gutxi exekutatutako zereginei buruzko informazioa lortzeko baimena ematen die aplikazioei. Horrela, aplikazioak gailuan erabiltzen ari diren aplikazioei buruzko informazioa ezagut dezake.",
        "permdesc_handoverStatus": "Uneko Android Beam transferentziei buruzko informazioa jasotzea baimentzen die aplikazioei",
        "permdesc_install_shortcut": "Erabiltzaileak ezer egin gabe hasierako pantailan lasterbideak gehitzeko aukera ematen die aplikazioei.",
        "permdesc_invokeCarrierSetup": "Operadorearen konfigurazio-aplikazioari deitzeko aukera ematen dio titularrari. Aplikazio normalek ez dute baimen hau behar.",
        "permdesc_killBackgroundProcesses": "Beste aplikazioen atzeko planoko prozesuak amaitzeko baimena ematen die aplikazioei. Horrela, agian aplikazio batzuk exekutatzeari utziko zaio.",
        "permdesc_manageFingerprint": "Erreferentzia-gako digitalen txantiloiak gehitzeko eta ezabatzeko metodoei dei egitea baimentzen die aplikazioei.",
        "permdesc_manageNetworkPolicy": "Sareko gidalerroak kudeatzea eta aplikazioetarako berariazko arauak definitzea baimentzen die aplikazioei.",
        "permdesc_manageOwnCalls": "Deiak sistemaren bidez bideratzea baimentzen die aplikazioei, deien zerbitzua ahal bezain ona izan dadin.",
        "permdesc_manageProfileAndDeviceOwners": "Profilaren eta gailuaren jabeak zehazteko baimena ematen die aplikazioei.",
        "permdesc_modifyAudioSettings": "Audio-ezarpen orokorrak aldatzeko baimena ematen dio; besteak beste, bolumena eta irteerarako zer bozgorailu erabiltzen den.",
        "permdesc_modifyNetworkAccounting": "Aplikazioen sare-erabilera kalkulatzeko modua aldatzeko baimena ematen die aplikazioei. Aplikazio normalek ez lukete beharko.",
        "permdesc_nfc": "Near Field Communication (NFC) etiketekin, txartelekin eta irakurgailuekin komunikatzea baimentzen die aplikazioei.",
        "permdesc_persistentActivity": "Beren zati batzuk memoria modu iraunkorrean ezartzeko baimena ematen die aplikazioei. Horrela, beste aplikazioek erabilgarri duten memoria murritz daiteke eta telefonoa motel daiteke.",
        "permdesc_processOutgoingCalls": "Irteerako deian markatutako zenbakia ikustea baimentzen die aplikazioei, deia beste zenbaki batera birbideratzeko edo deia bertan behera uzteko aukerarekin.",
        "permdesc_readCalendar": "Aplikazioak telefonoan gordetako egutegiko gertaerak irakur ditzake eta egutegiko datuak parteka eta gorde ditzake.",
        "permdesc_readCallLog": "Aplikazioak deien historia irakur dezake.",
        "permdesc_readCellBroadcasts": "Gailuak jasotako sare mugikor bidezko igorpenen mezuak irakurtzeko baimena ematen die aplikazioei. Sare mugikor bidezko igorpen-alertak kokapen batzuetan ematen dira larrialdi-egoeren berri emateko. Aplikazio gaiztoek gailuaren errendimendua edo funtzionamendua oztopa dezakete larrialdi-igorpen horietako bat jasotzen denean.",
        "permdesc_readContacts": "Telefonoan gordetako kontaktuei buruzko datuak irakurtzeko baimena ematen die aplikazioei, besteak beste, pertsona zehatzei zer maiztasunekin deitu diezun, mezu elektronikoak bidali dizkiezun edo haiekin harremanetan beste modutara nola jarri zaren. Baimen horrekin, aplikazioek kontaktuen datuak gorde ditzakete, eta aplikazio gaiztoek haiek parteka ditzakete zuk jakin gabe.",
        "permdesc_readHistoryBookmarks": "Arakatzailearen bidez bisitatutako URL guztien historia eta arakatzailearen laster-marka guztiak irakurtzeko baimena ematen die aplikazioei. Oharra: agian baimen hori ez dute aplikatuko hirugarrenen arakatzaileek edo sarea arakatzeko gaitasuna duten bestelako aplikazioek.",
        "permdesc_readInstallSessions": "Instalazio-saioak irakurtzea baimentzen die aplikazioei. Horrela, pakete-instalazio aktiboei buruzko xehetasunak ikus ditzakete.",
        "permdesc_readNetworkUsageHistory": "Sare eta aplikazio jakin batzuen sare-erabileraren historia irakurtzea baimentzen die aplikazioei.",
        "permdesc_readPhoneNumbers": "Gailuaren telefono-zenbakiak atzitzea baimentzen die aplikazioei.",
        "permdesc_readPhoneState": "Gailuaren telefono-eginbideak atzitzeko baimena ematen die aplikazioei. Baimen horrek aplikazioari telefono-zenbakia eta gailu IDak zein diren, deirik aktibo dagoen eta deia zer zenbakirekin konektatuta dagoen zehazteko baimena ematen die aplikazioei.",
        "permdesc_readSms": "Aplikazioak telefonoan gordetako SMS mezu (testu-mezu) guztiak irakur ditzake.",
        "permdesc_readSyncSettings": "Kontu baten sinkronizazio-ezarpenak irakurtzeko baimena ematen die aplikazioei. Adibidez, Jendea aplikazioa konturen batekin sinkronizatuta dagoen zehatz dezake.",
        "permdesc_readSyncStats": "Kontu baten sinkronizazio-estatistikak irakurtzeko baimena ematen dio; besteak beste, sinkronizazio-gertaeren historia eta sinkronizatutako datu kopurua.",
        "permdesc_receiveBootCompleted": "Sistema berrabiarazi bezain laster abiaraztea baimentzen die aplikazioei. Horrela, agian denbora gehiago beharko du telefonoak abiarazteko, eta telefonoaren funtzionamendu orokorra mantso daiteke, baimen hori duten aplikazioak beti abian egongo baitira.",
        "permdesc_receiveMms": "MMS mezuak jasotzeko eta prozesatzeko baimena ematen die aplikazioei. Horrela, aplikazioak gailura bidalitako mezuak kontrola eta ezaba ditzake zuri erakutsi gabe.",
        "permdesc_receiveSms": "SMS mezuak jasotzeko eta prozesatzeko baimena ematen die aplikazioei. Horrela, aplikazioak gailura bidalitako mezuak kontrola eta ezaba ditzake zuri erakutsi gabe.",
        "permdesc_receiveWapPush": "WAP mezuak jasotzeko eta prozesatzeko baimena ematen die aplikazioei. Horrela, aplikazioak, besteak beste, gailura bidalitako mezuak kontrola eta ezaba ditzake zuri erakutsi gabe.",
        "permdesc_recordAudio": "Aplikazioak edonoiz erabil dezake mikrofonoa audioa grabatzeko.",
        "permdesc_register_call_provider": "Telekomunikabideekiko konexio berriak erregistratzea baimentzen die aplikazioei.",
        "permdesc_register_sim_subscription": "Telekomunikabideekiko SIM konexio berriak erregistratzea baimentzen die aplikazioei.",
        "permdesc_removeDrmCertificates": "DRM ziurtagiriak kentzea baimentzen die aplikazioei. Aplikazio normalek ez lukete beharko.",
        "permdesc_reorderTasks": "Zereginak aurreko eta atzeko planora eramateko baimena ematen die aplikazioei. Aplikazioak zuk ezer egin gabe egin dezake hori.",
        "permdesc_requestDeletePackages": "Paketeak ezabatzeko eskatzea baimentzen die aplikazioei.",
        "permdesc_requestIgnoreBatteryOptimizations": "Bateriaren optimizazioei ez ikusi egiteko baimena eskatzea baimentzen die aplikazioei.",
        "permdesc_requestInstallPackages": "Paketeak instalatzeko eskatzea baimentzen die aplikazioei.",
        "permdesc_route_media_output": "Multimedia elementuak kanpoko gailuetara bideratzeko baimena ematen die aplikazioei.",
        "permdesc_runInBackground": "Atzeko planoan exekuta liteke aplikazioa eta horrek bizkorrago agor lezake bateria.",
        "permdesc_sdcardRead": "SD txartelaren edukia irakurtzeko aukera ematen die aplikazioei.",
        "permdesc_sdcardWrite": "SD txartelean idaztea baimentzen die aplikazioei.",
        "permdesc_sendSms": "SMS mezuak bidaltzeko baimena ematen die aplikazioei. Horrela, ustekabeko gastuak eragin daitezke. Aplikazio gaiztoek erabil dezakete zuk berretsi gabeko mezuak bidalita gastuak eragiteko.",
        "permdesc_setAlarm": "Instalatutako alarma batean alarmak ezartzea baimentzen die aplikazioei. Alarma-aplikazio batzuek agian ez dute eginbide hori inplementatuko.",
        "permdesc_setInputCalibration": "Ukipen-pantailaren kalibrazio-parametroak aldatzea baimentzen die aplikazioei. Aplikazio normalek ez lukete beharko.",
        "permdesc_setTimeZone": "Telefonoaren ordu-zona aldatzea baimentzen die aplikazioei.",
        "permdesc_setWallpaper": "Sistemaren horma-papera aldatzea baimentzen die aplikazioei.",
        "permdesc_setWallpaperHints": "Sistemaren horma-paperaren tamainaren doitzeak ezartzea baimentzen die aplikazioei.",
        "permdesc_sim_communication": "SIM txartelera aginduak bidaltzeko aukera ematen die aplikazioei. Oso arriskutsua da.",
        "permdesc_statusBar": "Egoera-barra desgaitzea edo sistema-ikonoak gehitzea edo kentzea baimentzen die aplikazioei.",
        "permdesc_statusBarService": "Egoera-barra izatea baimentzen die aplikazioei.",
        "permdesc_subscribedFeedsRead": "Unean sinkronizatutako jarioei buruzko xehetasunak lortzea baimentzen die aplikazioei.",
        "permdesc_systemAlertWindow": "Beste aplikazio batzuen edo pantailako beste zati batzuen gainean ager daiteke aplikazioa. Aplikazioaren funtzionamendu normala oztopa dezake eta beste aplikazio batzuen itxura alda dezake.",
        "permdesc_transmitIr": "Telefonoaren infragorri-igorlea erabiltzeko aukera ematen die aplikazioei.",
        "permdesc_uninstall_shortcut": "Erabiltzaileak ezer egin gabe hasierako pantailako lasterbideak kentzeko aukera ematen die aplikazioei.",
        "permdesc_useBiometric": "Autentifikatzeko hardware biometrikoa erabiltzea baimentzen die aplikazioei.",
        "permdesc_useDataInBackground": "Aplikazioak datuak erabil litzake atzeko planoan eta horrek datuen erabilera areago lezake.",
        "permdesc_useFingerprint": "Autentifikatzeko erreferentzia-gako digitalen hardwarea erabiltzea baimentzen die aplikazioei.",
        "permdesc_use_sip": "SIP deiak egitea eta jasotzea baimentzen die aplikazioei.",
        "permdesc_vibrate": "Bibragailua kontrolatzea baimentzen die aplikazioei.",
        "permdesc_wakeLock": "Telefonoa inaktibo ezartzea galaraztea baimentzen die aplikazioei.",
        "permdesc_writeCalendar": "Telefonoko gertaerak gehitzeko, kentzeko edo aldatzeko aukera du aplikazioak. Gainera, egutegien jabeenak diruditen mezuak bidal ditzake, eta gertaerak alda ditzake jabeei beraiei jakinarazi gabe.",
        "permdesc_writeCallLog": "Telefonoaren deien erregistroa aldatzeko baimena ematen die aplikazioei, sarrerako eta irteerako deiei buruzko datuak barne. Aplikazio gaiztoek deien erregistroa ezabatzeko edo aldatzeko erabil dezakete.",
        "permdesc_writeContacts": "Telefonoan gordetako kontaktuei buruzko datuak aldatzeko baimena ematen die aplikazioei, besteak beste, kontatu zehatzei zer maiztasunekin deitu diezun, mezu elektronikoak bidali dizkiezun edo haiekin harremanetan beste modutara nola jarri zaren. Baimen horrekin, aplikazioek kontaktuen datuak ezaba ditzakete.",
        "permdesc_writeGeolocationPermissions": "Arakatzailearen geokokapenaren baimenak aldatzea baimentzen die aplikazioei. Aplikazio gaiztoek hori erabil dezakete kokapenari buruzko informazioa haiek hautatutako webguneetara bidaltzeko.",
        "permdesc_writeHistoryBookmarks": "Arakatzailearen historia edo telefonoan gordetako laster-markak aldatzeko baimena ematen die aplikazioei. Horrela, aplikazioak agian arakatzaile-datuak ezabatu edo aldatu ahal izango ditu. Oharra: baimen hori hirugarrenen arakatzaileek edo sarea arakatzeko gaitasuna eskaintzen duten bestelako aplikazioek aplika dezakete.",
        "permdesc_writeSettings": "Sistemaren ezarpenen datuak aldatzea baimentzen die aplikazioei. Aplikazio gaiztoek sistemaren konfigurazioa hondatzeko erabil dezakete.",
        "permdesc_writeSyncSettings": "Kontu baten sinkronizazio-ezarpenak aldatzeko baimena ematen die aplikazioei. Adibidez, Jendea aplikazioa kontu batekin sinkronizatzeko erabil daiteke.",
        "permgroupdesc_calendar": "atzitu egutegia",
        "permgroupdesc_calllog": "irakurri telefonoko deien erregistroa eta idatzi bertan",
        "permgroupdesc_camera": "atera argazkiak eta grabatu bideoak",
        "permgroupdesc_contacts": "atzitu kontaktuak",
        "permgroupdesc_location": "atzitu gailuaren kokapena",
        "permgroupdesc_microphone": "grabatu audioa",
        "permgroupdesc_phone": "egin eta kudeatu telefono-deiak",
        "permgroupdesc_sensors": "atzitu bizi-konstanteei buruzko sentsorearen datuak",
        "permgroupdesc_sms": "bidali eta ikusi SMS mezuak",
        "permgroupdesc_storage": "atzitu gailuko argazkiak, multimedia-edukia eta fitxategiak",
        "permgrouplab_calendar": "Egutegia",
        "permgrouplab_calllog": "Deien erregistroa",
        "permgrouplab_camera": "Kamera",
        "permgrouplab_contacts": "Kontaktuak",
        "permgrouplab_location": "Kokapena",
        "permgrouplab_microphone": "Mikrofonoa",
        "permgrouplab_phone": "Telefonoa",
        "permgrouplab_sensors": "Gorputz-sentsoreak",
        "permgrouplab_sms": "SMS mezuak",
        "permgrouplab_storage": "Memoria",
        "permgrouprequest_calendar": "<b>",
        "permgrouprequest_calllog": "<b>",
        "permgrouprequest_camera": "<b>",
        "permgrouprequest_contacts": "<b>",
        "permgrouprequest_location": "<b>",
        "permgrouprequest_microphone": "<b>",
        "permgrouprequest_phone": "<b>",
        "permgrouprequest_sensors": "Bizi-konstanteei buruzko sentsorearen datuak atzitzea baimendu nahi diozu <b>",
        "permgrouprequest_sms": "<b>",
        "permgrouprequest_storage": "<b>",
        "permlab_acceptHandover": "Jarraitu beste aplikazio batean hasitako deia",
        "permlab_accessCoarseLocation": "atzitu gutxi gorabeherako kokapena (sarean oinarrituta)",
        "permlab_accessDrmCertificates": "atzitu DRM ziurtagiriak",
        "permlab_accessFineLocation": "atzitu kokapen zehatza (GPS sisteman eta sarean oinarrituta)",
        "permlab_accessImsCallService": "atzitu IMS dei-zerbitzua",
        "permlab_accessLocationExtraCommands": "atzitu kokapen-hornitzaileen komando gehigarriak",
        "permlab_accessNetworkConditions": "hauteman sarearen baldintzei buruzko behaketak",
        "permlab_accessNetworkState": "ikusi sareko konexioak",
        "permlab_accessNotifications": "atzitu jakinarazpenak",
        "permlab_accessWifiState": "ikusi Wi-Fi konexioak",
        "permlab_accessWimaxState": "WiMAX sarera konektatzea eta deskonektatzea",
        "permlab_access_notification_policy": "atzitu \\\"Ez molestatu\\\" egoera",
        "permlab_addVoicemail": "gehitu erantzungailua",
        "permlab_answerPhoneCalls": "erantzun telefono-deiak",
        "permlab_bindCarrierMessagingService": "lotu operadorearen mezularitza-zerbitzuari",
        "permlab_bindCarrierServices": "lotu operadorearen zerbitzuei",
        "permlab_bindConditionProviderService": "lotu baldintza-hornitzaileen zerbitzuei",
        "permlab_bindDreamService": "lotu dream zerbitzuei",
        "permlab_bindNotificationListenerService": "lotu jakinarazpen-hautemaile bati",
        "permlab_bind_connection_service": "elkarreragin telefono-zerbitzuekin",
        "permlab_bind_incall_service": "erabili pantaila deiak abian direnean",
        "permlab_bluetooth": "partekatu Bluetooth gailuekin",
        "permlab_bluetoothAdmin": "atzitu Bluetooth-ezarpenak",
        "permlab_bodySensors": "Atzitu gorputzaren sentsoreak (adibidez, bihotz-maiztasunarenak)",
        "permlab_broadcastSticky": "bidali igorpen erakargarria",
        "permlab_callPhone": "deitu zuzenean telefono-zenbakietara",
        "permlab_camera": "atera argazkiak eta grabatu bideoak",
        "permlab_changeNetworkState": "aldatu sarearen konektagarritasuna",
        "permlab_changeTetherState": "aldatu telefono bidezko konektagarritasuna",
        "permlab_changeWifiMulticastState": "onartu Wi-Fi Multicast harrera",
        "permlab_changeWifiState": "konektatu Wi-Fira edo deskonektatu bertatik",
        "permlab_changeWimaxState": "Aldatu WiMAX egoera",
        "permlab_connection_manager": "kudeatu telekomunikabideekiko konexioak",
        "permlab_control_incall_experience": "eskaini erabiltzaileentzako aukerak deiak abian direnean",
        "permlab_createNetworkSockets": "izan sarerako sarbide osoa",
        "permlab_disableKeyguard": "desgaitu pantailaren blokeoa",
        "permlab_enableCarMode": "gaitu auto modua",
        "permlab_expandStatusBar": "zabaldu/tolestu egoera-barra",
        "permlab_foregroundService": "Exekutatu zerbitzuak aurreko planoan",
        "permlab_getAccounts": "bilatu gailuko kontuak",
        "permlab_getPackageSize": "neurtu aplikazioen biltegiratzeko tokia",
        "permlab_getTasks": "eskuratu abian diren aplikazioak",
        "permlab_handoverStatus": "Jaso Android Beam transferentzien egoera",
        "permlab_install_shortcut": "instalatu lasterbideak",
        "permlab_invokeCarrierSetup": "deitu operadorearen konfigurazio-aplikazioari",
        "permlab_killBackgroundProcesses": "itxi beste aplikazioak",
        "permlab_manageFingerprint": "kudeatu erreferentzia-gako digitalen hardwarea",
        "permlab_manageNetworkPolicy": "kudeatu sare-gidalerroak",
        "permlab_manageOwnCalls": "bideratu deiak sistemaren bidez",
        "permlab_manageProfileAndDeviceOwners": "kudeatu profilen eta gailuen jabeak",
        "permlab_modifyAudioSettings": "aldatu audio-ezarpenak",
        "permlab_modifyNetworkAccounting": "aldatu sare-erabileraren kalkuluak",
        "permlab_nfc": "kontrolatu Near Field Communication komunikazioa",
        "permlab_persistentActivity": "izan aplikazioa beti abian",
        "permlab_processOutgoingCalls": "birbideratu irteerako deiak",
        "permlab_readCalendar": "irakurri egutegiko gertaerak eta xehetasunak",
        "permlab_readCallLog": "irakurri deien erregistroa",
        "permlab_readCellBroadcasts": "irakurri sare mugikor bidezko igorpen-mezuak",
        "permlab_readContacts": "irakurri kontaktuak",
        "permlab_readHistoryBookmarks": "irakurri sareko laster-markak eta historia",
        "permlab_readInstallSessions": "irakurri instalazio-saioak",
        "permlab_readNetworkUsageHistory": "irakurri sare-erabileraren historia",
        "permlab_readPhoneNumbers": "irakurri telefono-zenbakiak",
        "permlab_readPhoneState": "irakurri telefonoaren egoera eta identitatea",
        "permlab_readSms": "irakurri testu-mezuak (SMSak edo MMSak)",
        "permlab_readSyncSettings": "irakurri sinkronizazio-ezarpenak",
        "permlab_readSyncStats": "irakurri sinkronizazio-estatistikak",
        "permlab_receiveBootCompleted": "exekutatu abiaraztean",
        "permlab_receiveMms": "jaso testu-mezuak (MMSak)",
        "permlab_receiveSms": "jaso testu-mezuak (SMSak)",
        "permlab_receiveWapPush": "jaso testu-mezuak (WAP bidezkoak)",
        "permlab_recordAudio": "grabatu audioa",
        "permlab_register_call_provider": "erregistratu telekomunikabideekiko konexio berriak",
        "permlab_register_sim_subscription": "erregistratu telekomunikabideekiko SIM konexio berriak",
        "permlab_removeDrmCertificates": "kendu DRM ziurtagiriak",
        "permlab_reorderTasks": "ordenatu abian diren aplikazioak",
        "permlab_requestDeletePackages": "eskatu paketeak ezabatzeko",
        "permlab_requestIgnoreBatteryOptimizations": "eskatu bateria-optimizazioei ez ikusi egitea",
        "permlab_requestInstallPackages": "eskatu instalazio-paketeak",
        "permlab_route_media_output": "bideratu multimedia-irteera",
        "permlab_runInBackground": "exekutatu atzeko planoan",
        "permlab_sdcardRead": "irakurri SD txarteleko edukia",
        "permlab_sdcardWrite": "aldatu edo ezabatu SD txarteleko edukia",
        "permlab_sendSms": "bidali eta ikusi SMS mezuak",
        "permlab_setAlarm": "ezarri alarmak",
        "permlab_setInputCalibration": "Aldatu idazteko gailuaren kalibrazioa",
        "permlab_setTimeZone": "ezarri ordu-zona",
        "permlab_setWallpaper": "ezarri horma-papera",
        "permlab_setWallpaperHints": "doitu horma-paperaren tamaina",
        "permlab_sim_communication": "bidali aginduak SIM txartelera",
        "permlab_statusBar": "desgaitu edo aldatu egoera-barra",
        "permlab_statusBarService": "bihurtu egoera-barra",
        "permlab_subscribedFeedsRead": "irakurri harpidetutako jarioak",
        "permlab_systemAlertWindow": "agertu beste aplikazio batzuen gainean",
        "permlab_transmitIr": "transmititu infragorriak",
        "permlab_uninstall_shortcut": "desinstalatu lasterbideak",
        "permlab_useBiometric": "Erabili hardware biometrikoa",
        "permlab_useDataInBackground": "erabili datuak atzeko planoan",
        "permlab_useFingerprint": "erabili erreferentzia-gako digitalen hardwarea",
        "permlab_use_sip": "egin/jaso SIP deiak",
        "permlab_vibrate": "kontrolatu dardara",
        "permlab_wakeLock": "eragotzi telefonoa inaktibo ezartzea",
        "permlab_writeCalendar": "gehitu edo aldatu egutegiko gertaerak eta bidali mezu elektronikoak gonbidatuei jabeek jakin gabe",
        "permlab_writeCallLog": "idatzi deien erregistroan",
        "permlab_writeContacts": "aldatu kontaktuak",
        "permlab_writeGeolocationPermissions": "aldatu arakatzailearen geokokapenaren baimenak",
        "permlab_writeHistoryBookmarks": "idatzi sareko laster-marka eta historian",
        "permlab_writeSettings": "aldatu sistemaren ezarpenak",
        "permlab_writeSyncSettings": "aktibatu eta desaktibatu sinkronizazioa"
    },
    "sidebars": {
        "donate": {
            "bank_transfer_name": "Izena",
            "bitcoin_alt": "Bitcoin",
            "flattr_alt": "Flattr",
            "heading": "Dohaintza",
            "hellotux": "👕 Kamisetak 👕 salgai",
            "hellotux_alt": "HELLOTUX",
            "hellotux_donation": "F-Droidek 3€ jasoko ditu saldutako kamiseta bakoitzeko.",
            "liberapay_alt": "Liberapay",
            "litecoin_alt": "Litecoin bidezko dohaintza",
            "paypal_alt": "PayPal bidezko dohaintza",
            "powered_by_donations": "F-Droid zure dohaintzei esker dabil!",
            "via_bank_transfer": "Banku transferentzia"
        },
        "lang": {
            "change": "Aldatu"
        },
        "last_updated": {
            "heading": "Eguneratutako azkenak"
        },
        "latest_packages": {
            "heading": "Aplikazio berriak"
        },
        "news": {
            "heading": "Berriak"
        },
        "search": {
            "heading": "Bilatu aplikazioak",
            "noscript": "Javascript aktibatuta izatea behar du",
            "search": "Bilatu"
        }
    }
}
